JobOptionsSvc        INFO # =======> /build1/leggett/git/Gaudi/GaudiExamples/options/RandomNumber.opts
JobOptionsSvc        INFO # (5,1): AuditorSvc.Auditors = ["ChronoAuditor"]
JobOptionsSvc        INFO # (12,1): ApplicationMgr.TopAlg = ["RandomNumberAlg"]
JobOptionsSvc        INFO # (15,1): MessageSvc.OutputLevel = 2
JobOptionsSvc        INFO # (20,1): ApplicationMgr.EvtMax = 1000
JobOptionsSvc        INFO # (21,1): ApplicationMgr.EvtSel = "NONE"
JobOptionsSvc        INFO # (31,1): ApplicationMgr.HistogramPersistency = "ROOT"
JobOptionsSvc        INFO # (32,1): HistogramPersistencySvc.OutputFile = "histo.root"
JobOptionsSvc        INFO # (33,1): NTupleSvc.Output = ["FILE1 DATAFILE='NTuple.root' OPT='NEW' TYP='ROOT'"]
JobOptionsSvc        INFO Job options successfully read in from /build1/leggett/git/Gaudi/GaudiExamples/options/RandomNumber.opts
ApplicationMgr      DEBUG Getting my own properties
ApplicationMgr    SUCCESS
====================================================================================================================================
                                                   Welcome to ApplicationMgr (GaudiCoreSvc v4r1)
                                          running on p05614910w96644.cern.ch on Wed Oct  5 20:03:49 2016
====================================================================================================================================
ApplicationMgr       INFO Application Manager Configured successfully
ServiceManager      DEBUG Initializing service AppMgrRunable
AppMgrRunable       DEBUG Property update for OutputLevel : new value = 2
AppMgrRunable       DEBUG Service base class initialized successfully
ServiceManager      DEBUG Initializing service EventLoopMgr
EventLoopMgr        DEBUG Property update for OutputLevel : new value = 2
EventLoopMgr        DEBUG Service base class initialized successfully
IncidentSvc         DEBUG Property update for OutputLevel : new value = 2
IncidentSvc         DEBUG Service base class initialized successfully
IncidentSvc         DEBUG Adding [AbortEvent] listener '<unknown>' with priority 0
EventLoopMgr        DEBUG Creating Top Algorithm RandomNumberAlg with name RandomNumberAlg
EventDataSvc        DEBUG Property update for OutputLevel : new value = 2
EventDataSvc        DEBUG Service base class initialized successfully
EventPersistenc...  DEBUG Property update for OutputLevel : new value = 2
EventPersistenc...  DEBUG Service base class initialized successfully
TimelineSvc         DEBUG Property update for OutputLevel : new value = 2
TimelineSvc         DEBUG Service base class initialized successfully
TimelineSvc         DEBUG initialize
RndmGenSvc          DEBUG Property update for OutputLevel : new value = 2
RndmGenSvc          DEBUG Service base class initialized successfully
RndmGenSvc.Engine   DEBUG Property update for OutputLevel : new value = 2
RndmGenSvc.Engine   DEBUG Service base class initialized successfully
RndmGenSvc.Engine    INFO Generator engine type:CLHEP::RanluxEngine
RndmGenSvc.Engine    INFO Current Seed:1234567 Luxury:3
RndmGenSvc           INFO Using Random engine:HepRndm::Engine<CLHEP::RanluxEngine>
HistogramDataSvc    DEBUG Property update for OutputLevel : new value = 2
HistogramDataSvc    DEBUG Service base class initialized successfully
HistogramPersis...  DEBUG  'CnvServices':[ 'RootHistSvc' ]
HistogramPersis...  DEBUG Service base class initialized successfully
RootHistSvc         DEBUG Property update for OutputLevel : new value = 2
RootHistSvc         DEBUG Service base class initialized successfully
RootHistSvc          INFO Writing ROOT histograms to: histo.root
HistogramPersis...   INFO Added successfully Conversion service:RootHistSvc
NTupleSvc           DEBUG Property update for OutputLevel : new value = 2
NTupleSvc           DEBUG Service base class initialized successfully
NTupleSvcConver...  DEBUG Property update for OutputLevel : new value = 2
NTupleSvcConver...  DEBUG Service base class initialized successfully
NTupleSvc            INFO Added stream file:NTuple.root as FILE1
RFileCnv             INFO opening Root file "NTuple.root" for writing
RFileCnv            DEBUG creating ROOT file NTuple.root
AlgExecStateSvc     DEBUG Property update for OutputLevel : new value = 2
AlgExecStateSvc     DEBUG Service base class initialized successfully
AlgExecStateSvc     DEBUG preInit: will add Alg RandomNumberAlg later
RandomNumberAlg     DEBUG input handles: 0
RandomNumberAlg     DEBUG output handles: 0
RandomNumberAlg     DEBUG Data Deps for RandomNumberAlg
EventLoopMgr      WARNING Unable to locate service "EventSelector"
EventLoopMgr      WARNING No events will be processed from external input.
ApplicationMgr       INFO Application Manager Initialized successfully
ServiceManager      DEBUG Starting service AppMgrRunable
ServiceManager      DEBUG Starting service IncidentSvc
ServiceManager      DEBUG Starting service EventPersistencySvc
ServiceManager      DEBUG Starting service EventDataSvc
ServiceManager      DEBUG Starting service TimelineSvc
ServiceManager      DEBUG Starting service RndmGenSvc
ServiceManager      DEBUG Starting service RootHistSvc
ServiceManager      DEBUG Starting service HistogramPersistencySvc
ServiceManager      DEBUG Starting service HistogramDataSvc
ServiceManager      DEBUG Starting service NTupleSvc
ServiceManager      DEBUG Starting service AlgExecStateSvc
ServiceManager      DEBUG Starting service EventLoopMgr
ApplicationMgr       INFO Application Manager Started successfully
AlgExecStateSvc     DEBUG resizing state containers to : 1
AlgExecStateSvc     DEBUG adding alg RandomNumberAlg to 1 slots
RRWNTupleCnv         INFO ID 100: added branch: Event# / Event#/I
RRWNTupleCnv         INFO ID 100: added branch: DeterInt / DeterInt/i
RRWNTupleCnv         INFO ID 100: added branch: Gauss / Gauss/F
RRWNTupleCnv         INFO ID 100: added branch: Exp / Exp/F
RRWNTupleCnv         INFO ID 100: added branch: Poisson / Poisson/F
RRWNTupleCnv         INFO Booked TTree with ID:100 "Hello World"
EventLoopMgr        DEBUG ---> Loop Finished -  WSS 133.863 | total time (skipping 1st evt) 24814846 ns
ServiceManager      DEBUG Stopping service EventLoopMgr
ServiceManager      DEBUG Stopping service AlgExecStateSvc
ServiceManager      DEBUG Stopping service NTupleSvc
ServiceManager      DEBUG Stopping service HistogramDataSvc
ServiceManager      DEBUG Stopping service HistogramPersistencySvc
ServiceManager      DEBUG Stopping service RootHistSvc
ServiceManager      DEBUG Stopping service RndmGenSvc
ServiceManager      DEBUG Stopping service TimelineSvc
ServiceManager      DEBUG Stopping service EventDataSvc
ServiceManager      DEBUG Stopping service EventPersistencySvc
ServiceManager      DEBUG Stopping service IncidentSvc
ServiceManager      DEBUG Stopping service AppMgrRunable
ApplicationMgr       INFO Application Manager Stopped successfully
ServiceManager      DEBUG Finalizing service EventLoopMgr
Destructor Called for RandomNumberAlg
IncidentSvc         DEBUG Removing [AbortEvent] listener '<unknown>'
EventLoopMgr         INFO Histograms converted successfully according to request.
ServiceManager      DEBUG Finalizing service AlgExecStateSvc
ServiceManager      DEBUG Finalizing service NTupleSvc
RFileCnv             INFO dumping contents of /NTUPLES/FILE1
TFile: name=NTuple.root, title=Gaudi Trees, option=CREATE
******************************************************************************
*Tree    :100       : Hello World                                            *
*Entries :     1000 : Total =           23150 bytes  File  Size =      11808 *
*        :          : Tree compression factor =   1.84                       *
******************************************************************************
*Br    0 :Event#    : Event#/I                                               *
*Entries :     1000 : Total  Size=       4558 bytes  File Size  =       1516 *
*Baskets :        1 : Basket Size=      32000 bytes  Compression=   2.69     *
*............................................................................*
*Br    1 :DeterInt  : DeterInt/i                                             *
*Entries :     1000 : Total  Size=       4568 bytes  File Size  =       1558 *
*Baskets :        1 : Basket Size=      32000 bytes  Compression=   2.61     *
*............................................................................*
*Br    2 :Gauss     : Gauss/F                                                *
*Entries :     1000 : Total  Size=       4553 bytes  File Size  =       3676 *
*Baskets :        1 : Basket Size=      32000 bytes  Compression=   1.11     *
*............................................................................*
*Br    3 :Exp       : Exp/F                                                  *
*Entries :     1000 : Total  Size=       4543 bytes  File Size  =       3757 *
*Baskets :        1 : Basket Size=      32000 bytes  Compression=   1.08     *
*............................................................................*
*Br    4 :Poisson   : Poisson/F                                              *
*Entries :     1000 : Total  Size=       4563 bytes  File Size  =        564 *
*Baskets :        1 : Basket Size=      32000 bytes  Compression=   7.22     *
*............................................................................*
NTupleSvc            INFO NTuples saved successfully
ServiceManager      DEBUG Finalizing service HistogramDataSvc
ServiceManager      DEBUG Finalizing service HistogramPersistencySvc
HistogramPersis...  DEBUG Converted Histos : #4
  '/stat/1'
  '/stat/2'
  '/stat/3'
  '/stat/4'
ServiceManager      DEBUG Finalizing service RootHistSvc
RootHistSvc         DEBUG RootHistCnv::PersSvc::finalize()
ServiceManager      DEBUG Finalizing service RndmGenSvc
ServiceManager      DEBUG Finalizing service TimelineSvc
ServiceManager      DEBUG Finalizing service EventDataSvc
ServiceManager      DEBUG Finalizing service EventPersistencySvc
ServiceManager      DEBUG Finalizing service IncidentSvc
IncidentSvc         DEBUG Incident  timing: Mean(+-rms)/Min/Max:0.0005(+-0.0223551)/0/1[ms] Total:0.002[s]
ServiceManager      DEBUG Finalizing service AppMgrRunable
ServiceManager      DEBUG Looping over all active services...
ServiceManager      DEBUG ---- MessageSvc (refCount = 17)
ServiceManager      DEBUG ---- JobOptionsSvc (refCount = 3)
ServiceManager      DEBUG ---- RndmGenSvc.Engine (refCount = 2)
ServiceManager      DEBUG ---- AppMgrRunable (refCount = 3)
ServiceManager      DEBUG ---- IncidentSvc (refCount = 2)
ServiceManager      DEBUG ---- EventPersistencySvc (refCount = 2)
ServiceManager      DEBUG ---- EventDataSvc (refCount = 3)
ServiceManager      DEBUG ---- TimelineSvc (refCount = 2)
ServiceManager      DEBUG ---- RndmGenSvc (refCount = 2)
ServiceManager      DEBUG ---- RootHistSvc (refCount = 3)
ServiceManager      DEBUG ---- HistogramPersistencySvc (refCount = 2)
ServiceManager      DEBUG ---- HistogramDataSvc (refCount = 3)
ServiceManager      DEBUG ---- NTupleSvc (refCount = 2)
ServiceManager      DEBUG ---- AlgExecStateSvc (refCount = 3)
ServiceManager      DEBUG ---- EventLoopMgr (refCount = 3)
ApplicationMgr       INFO Application Manager Finalized successfully
ApplicationMgr       INFO Application Manager Terminated successfully
